D:\Dev_GIT_Smartfluence\Smartfluence\smartfluence-accounts\src\main\java\io\smartfluence\accounts\dao\ToolsAPIDao.java
D:\Dev_GIT_Smartfluence\Smartfluence\smartfluence-accounts\src\main\java\io\smartfluence\accounts\rest\CustomResponseEntityExceptionHandler.java
D:\Dev_GIT_Smartfluence\Smartfluence\smartfluence-accounts\src\main\java\io\smartfluence\accounts\service\ToolsAPIService.java
D:\Dev_GIT_Smartfluence\Smartfluence\smartfluence-accounts\src\main\java\io\smartfluence\accounts\modal\InfluencersSimilarUsers.java
D:\Dev_GIT_Smartfluence\Smartfluence\smartfluence-accounts\src\main\java\io\smartfluence\accounts\rest\ToolsAPIServiceRestController.java
D:\Dev_GIT_Smartfluence\Smartfluence\smartfluence-accounts\src\main\java\io\smartfluence\accounts\service\EmailAccountsServiceImpl.java
D:\Dev_GIT_Smartfluence\Smartfluence\smartfluence-accounts\src\main\java\io\smartfluence\mail\MailService.java
D:\Dev_GIT_Smartfluence\Smartfluence\smartfluence-accounts\src\main\java\io\smartfluence\accounts\service\ToolsAPIServiceImpl.java
D:\Dev_GIT_Smartfluence\Smartfluence\smartfluence-accounts\src\main\java\io\smartfluence\accounts\dao\RegistrationAccountsDao.java
D:\Dev_GIT_Smartfluence\Smartfluence\smartfluence-accounts\src\main\java\io\smartfluence\accounts\modal\InfluencerDataResponseModal.java
D:\Dev_GIT_Smartfluence\Smartfluence\smartfluence-accounts\src\main\java\io\smartfluence\ResourceServer.java
D:\Dev_GIT_Smartfluence\Smartfluence\smartfluence-accounts\src\main\java\io\smartfluence\OAuth2Config.java
D:\Dev_GIT_Smartfluence\Smartfluence\smartfluence-accounts\src\main\java\io\smartfluence\accounts\dao\EmailAccountsDao.java
D:\Dev_GIT_Smartfluence\Smartfluence\smartfluence-accounts\src\main\java\io\smartfluence\accounts\dao\EmailAccountsDaoImpl.java
D:\Dev_GIT_Smartfluence\Smartfluence\smartfluence-accounts\src\main\java\io\smartfluence\accounts\modal\InfluencersUserProfile.java
D:\Dev_GIT_Smartfluence\Smartfluence\smartfluence-accounts\src\main\java\io\smartfluence\SmartfluenceAccountsApplication.java
D:\Dev_GIT_Smartfluence\Smartfluence\smartfluence-accounts\src\main\java\io\smartfluence\accounts\controller\HomeView.java
D:\Dev_GIT_Smartfluence\Smartfluence\smartfluence-accounts\src\main\java\io\smartfluence\accounts\dao\ToolsAPIDaoImpl.java
D:\Dev_GIT_Smartfluence\Smartfluence\smartfluence-accounts\src\main\java\io\smartfluence\accounts\modal\InfluencersLookalikes.java
D:\Dev_GIT_Smartfluence\Smartfluence\smartfluence-accounts\src\main\java\io\smartfluence\accounts\service\EmailAccountsService.java
D:\Dev_GIT_Smartfluence\Smartfluence\smartfluence-accounts\src\main\java\io\smartfluence\SsoServer.java
D:\Dev_GIT_Smartfluence\Smartfluence\smartfluence-accounts\src\main\java\io\smartfluence\accounts\rest\EmailAccountsRestController.java
D:\Dev_GIT_Smartfluence\Smartfluence\smartfluence-accounts\src\main\java\io\smartfluence\accounts\service\UserDetailsServiceImpl.java
D:\Dev_GIT_Smartfluence\Smartfluence\smartfluence-accounts\src\main\java\io\smartfluence\accounts\util\CronUtil.java
